counter.vcd
$date
     May 15, 2020       22:06:09
$end

$version
 SystemC 2.3.3-Accellera --- Mar  7 2020 01:48:18
$end

$timescale
     1 ps
$end

$scope module SystemC $end
$var wire   32  aaaaa  A [31:0]  $end
$var wire   32  aaaab  B [31:0]  $end
$var wire   32  aaaac  alucode [31:0]  $end
$var wire    1  aaaad  ZERO       $end
$var wire   32  aaaae  rd_data [31:0]  $end
$var wire    1  aaaaf  ZERO       $end
$var wire   32  aaaag  instruction [31:0]  $end
$var wire   32  aaaah  RS1 [31:0]  $end
$var wire   32  aaaai  RS2 [31:0]  $end
$var wire   32  aaaaj  rs1_data [31:0]  $end
$var wire   32  aaaak  rs2_data [31:0]  $end
$var wire   32  aaaal  imm_extend [31:0]  $end
$var wire    1  aaaam  sysclk       $end
$var wire    1  aaaan  reset       $end
$var wire   32  aaaao  PC [31:0]  $end
$var wire   32  aaaap  Dout [31:0]  $end
$var wire    1  aaaaq  branch       $end
$var wire    1  aaaar  read_from_mem       $end
$var wire    1  aaaas  write_to_mem       $end
$var wire    1  aaaat  ALU_source       $end
$upscope $end
$enddefinitions  $end

$comment
All initial values are dumped below at time 0 sec = 0 timescale units.
$end

$dumpvars
b0 aaaaa
b0 aaaab
b0 aaaac
1aaaad
b0 aaaae
1aaaaf
b0 aaaag
b0 aaaah
b0 aaaai
b0 aaaaj
b0 aaaak
b0 aaaal
1aaaam
1aaaan
b1000 aaaao
b0 aaaap
0aaaaq
0aaaar
0aaaas
0aaaat
$end

#10000
0aaaam

#20000
b1 aaaab
0aaaad
b1 aaaae
0aaaaf
b100001000000010010011 aaaag
b1 aaaah
b1 aaaal
1aaaam
0aaaan
b0 aaaao
b1 aaaap
1aaaat

#30000
0aaaam

#40000
b11111111111111111111000000000000 aaaab
b11111111111111111111000000000000 aaaae
b11111111111111111111001000110111 aaaag
b0 aaaah
b11111111111111111111000000000000 aaaal
1aaaam
b100 aaaao
b11111111111111111111000000000000 aaaap

#50000
0aaaam

#60000
b10000000000000000000000000000000 aaaab
b10000000000000000000000000000000 aaaae
b10000000000000000000001010110111 aaaag
b10000000000000000000000000000000 aaaal
1aaaam
b1000 aaaao
b10000000000000000000000000000000 aaaap

#70000
0aaaam

#80000
b11111111111111111111000000000000 aaaaa
b111 aaaac
b10100100111001100110011 aaaag
b100 aaaah
b101 aaaai
b11111111111111111111000000000000 aaaaj
b10000000000000000000000000000000 aaaak
1aaaam
b1100 aaaao
0aaaat

#90000
0aaaam

#100000
b10000000000000000000000000000000 aaaaa
b0 aaaab
b1000 aaaac
b110000100001100011 aaaag
b110 aaaah
b0 aaaai
b10000000000000000000000000000000 aaaaj
b0 aaaak
b1000 aaaal
1aaaam
b10000 aaaao
1aaaaq

#110000
0aaaam

#120000
b0 aaaaa
b1 aaaab
b0 aaaac
b1 aaaae
b100010000000100010011 aaaag
b10 aaaah
b0 aaaaj
b1 aaaal
1aaaam
b10100 aaaao
b1 aaaap
0aaaaq
1aaaat

#130000
0aaaam

#140000
b11111111111111111111000000000000 aaaaa
b1 aaaac
b11111111111111111110000000000000 aaaae
b100100001001000110011 aaaag
b100 aaaah
b1 aaaai
b11111111111111111111000000000000 aaaaj
b1 aaaak
1aaaam
b11000 aaaao
b11111111111111111110000000000000 aaaap
0aaaat

#150000
0aaaam

#160000
b0 aaaaa
b11111111111111111111111111111000 aaaab
b0 aaaac
b11111111111111111111111111111000 aaaae
b11111111000111111111000001101111 aaaag
b11111 aaaah
b0 aaaaj
b11111111111111111111111111111000 aaaal
1aaaam
b11100 aaaao
b11111111111111111111111111111000 aaaap
1aaaat

#170000
0aaaam

#180000
b11111111111111111110000000000000 aaaaa
b10000000000000000000000000000000 aaaab
b111 aaaac
b10000000000000000000000000000000 aaaae
b10100100111001100110011 aaaag
b100 aaaah
b101 aaaai
b11111111111111111110000000000000 aaaaj
b10000000000000000000000000000000 aaaak
1aaaam
b1100 aaaao
b10000000000000000000000000000000 aaaap
0aaaat

#190000
0aaaam

#200000
b10000000000000000000000000000000 aaaaa
b0 aaaab
b1000 aaaac
b110000100001100011 aaaag
b110 aaaah
b0 aaaai
b10000000000000000000000000000000 aaaaj
b0 aaaak
b1000 aaaal
1aaaam
b10000 aaaao
1aaaaq

#210000
0aaaam

#220000
b1 aaaaa
b1 aaaab
b0 aaaac
b10 aaaae
b100010000000100010011 aaaag
b10 aaaah
b1 aaaaj
b1 aaaal
1aaaam
b10100 aaaao
b10 aaaap
0aaaaq
1aaaat

#230000
0aaaam

#240000
b11111111111111111110000000000000 aaaaa
b1 aaaac
b11111111111111111100000000000000 aaaae
b100100001001000110011 aaaag
b100 aaaah
b1 aaaai
b11111111111111111110000000000000 aaaaj
b1 aaaak
1aaaam
b11000 aaaao
b11111111111111111100000000000000 aaaap
0aaaat

#250000
0aaaam

#260000
b0 aaaaa
b11111111111111111111111111111000 aaaab
b0 aaaac
b11111111111111111111111111111000 aaaae
b11111111000111111111000001101111 aaaag
b11111 aaaah
b0 aaaaj
b11111111111111111111111111111000 aaaal
1aaaam
b11100 aaaao
b11111111111111111111111111111000 aaaap
1aaaat

#270000
0aaaam

#280000
b11111111111111111100000000000000 aaaaa
b10000000000000000000000000000000 aaaab
b111 aaaac
b10000000000000000000000000000000 aaaae
b10100100111001100110011 aaaag
b100 aaaah
b101 aaaai
b11111111111111111100000000000000 aaaaj
b10000000000000000000000000000000 aaaak
1aaaam
b1100 aaaao
b10000000000000000000000000000000 aaaap
0aaaat

#290000
0aaaam

#300000
b10000000000000000000000000000000 aaaaa
b0 aaaab
b1000 aaaac
b110000100001100011 aaaag
b110 aaaah
b0 aaaai
b10000000000000000000000000000000 aaaaj
b0 aaaak
b1000 aaaal
1aaaam
b10000 aaaao
1aaaaq

#310000
0aaaam

#320000
b10 aaaaa
b1 aaaab
b0 aaaac
b11 aaaae
b100010000000100010011 aaaag
b10 aaaah
b10 aaaaj
b1 aaaal
1aaaam
b10100 aaaao
b11 aaaap
0aaaaq
1aaaat

#330000
0aaaam

#340000
b11111111111111111100000000000000 aaaaa
b1 aaaac
b11111111111111111000000000000000 aaaae
b100100001001000110011 aaaag
b100 aaaah
b1 aaaai
b11111111111111111100000000000000 aaaaj
b1 aaaak
1aaaam
b11000 aaaao
b11111111111111111000000000000000 aaaap
0aaaat

#350000
0aaaam

#360000
b0 aaaaa
b11111111111111111111111111111000 aaaab
b0 aaaac
b11111111111111111111111111111000 aaaae
b11111111000111111111000001101111 aaaag
b11111 aaaah
b0 aaaaj
b11111111111111111111111111111000 aaaal
1aaaam
b11100 aaaao
b11111111111111111111111111111000 aaaap
1aaaat

#370000
0aaaam

#380000
b11111111111111111000000000000000 aaaaa
b10000000000000000000000000000000 aaaab
b111 aaaac
b10000000000000000000000000000000 aaaae
b10100100111001100110011 aaaag
b100 aaaah
b101 aaaai
b11111111111111111000000000000000 aaaaj
b10000000000000000000000000000000 aaaak
1aaaam
b1100 aaaao
b10000000000000000000000000000000 aaaap
0aaaat

#390000
0aaaam

#400000
b10000000000000000000000000000000 aaaaa
b0 aaaab
b1000 aaaac
b110000100001100011 aaaag
b110 aaaah
b0 aaaai
b10000000000000000000000000000000 aaaaj
b0 aaaak
b1000 aaaal
1aaaam
b10000 aaaao
1aaaaq

#410000
0aaaam

#420000
b11 aaaaa
b1 aaaab
b0 aaaac
b100 aaaae
b100010000000100010011 aaaag
b10 aaaah
b11 aaaaj
b1 aaaal
1aaaam
b10100 aaaao
b100 aaaap
0aaaaq
1aaaat

#430000
0aaaam

#440000
b11111111111111111000000000000000 aaaaa
b1 aaaac
b11111111111111110000000000000000 aaaae
b100100001001000110011 aaaag
b100 aaaah
b1 aaaai
b11111111111111111000000000000000 aaaaj
b1 aaaak
1aaaam
b11000 aaaao
b11111111111111110000000000000000 aaaap
0aaaat

#450000
0aaaam

#460000
b0 aaaaa
b11111111111111111111111111111000 aaaab
b0 aaaac
b11111111111111111111111111111000 aaaae
b11111111000111111111000001101111 aaaag
b11111 aaaah
b0 aaaaj
b11111111111111111111111111111000 aaaal
1aaaam
b11100 aaaao
b11111111111111111111111111111000 aaaap
1aaaat

#470000
0aaaam

#480000
b11111111111111110000000000000000 aaaaa
b10000000000000000000000000000000 aaaab
b111 aaaac
b10000000000000000000000000000000 aaaae
b10100100111001100110011 aaaag
b100 aaaah
b101 aaaai
b11111111111111110000000000000000 aaaaj
b10000000000000000000000000000000 aaaak
1aaaam
b1100 aaaao
b10000000000000000000000000000000 aaaap
0aaaat

#490000
0aaaam

#500000
b10000000000000000000000000000000 aaaaa
b0 aaaab
b1000 aaaac
b110000100001100011 aaaag
b110 aaaah
b0 aaaai
b10000000000000000000000000000000 aaaaj
b0 aaaak
b1000 aaaal
1aaaam
b10000 aaaao
1aaaaq

#510000
0aaaam

#520000
b100 aaaaa
b1 aaaab
b0 aaaac
b101 aaaae
b100010000000100010011 aaaag
b10 aaaah
b100 aaaaj
b1 aaaal
1aaaam
b10100 aaaao
b101 aaaap
0aaaaq
1aaaat

#530000
0aaaam

#540000
b11111111111111110000000000000000 aaaaa
b1 aaaac
b11111111111111100000000000000000 aaaae
b100100001001000110011 aaaag
b100 aaaah
b1 aaaai
b11111111111111110000000000000000 aaaaj
b1 aaaak
1aaaam
b11000 aaaao
b11111111111111100000000000000000 aaaap
0aaaat

#550000
0aaaam

#560000
b0 aaaaa
b11111111111111111111111111111000 aaaab
b0 aaaac
b11111111111111111111111111111000 aaaae
b11111111000111111111000001101111 aaaag
b11111 aaaah
b0 aaaaj
b11111111111111111111111111111000 aaaal
1aaaam
b11100 aaaao
b11111111111111111111111111111000 aaaap
1aaaat

#570000
0aaaam

#580000
b11111111111111100000000000000000 aaaaa
b10000000000000000000000000000000 aaaab
b111 aaaac
b10000000000000000000000000000000 aaaae
b10100100111001100110011 aaaag
b100 aaaah
b101 aaaai
b11111111111111100000000000000000 aaaaj
b10000000000000000000000000000000 aaaak
1aaaam
b1100 aaaao
b10000000000000000000000000000000 aaaap
0aaaat

#590000
0aaaam

#600000
b10000000000000000000000000000000 aaaaa
b0 aaaab
b1000 aaaac
b110000100001100011 aaaag
b110 aaaah
b0 aaaai
b10000000000000000000000000000000 aaaaj
b0 aaaak
b1000 aaaal
1aaaam
b10000 aaaao
1aaaaq

#610000
0aaaam

#620000
b101 aaaaa
b1 aaaab
b0 aaaac
b110 aaaae
b100010000000100010011 aaaag
b10 aaaah
b101 aaaaj
b1 aaaal
1aaaam
b10100 aaaao
b110 aaaap
0aaaaq
1aaaat

#630000
0aaaam

#640000
b11111111111111100000000000000000 aaaaa
b1 aaaac
b11111111111111000000000000000000 aaaae
b100100001001000110011 aaaag
b100 aaaah
b1 aaaai
b11111111111111100000000000000000 aaaaj
b1 aaaak
1aaaam
b11000 aaaao
b11111111111111000000000000000000 aaaap
0aaaat

#650000
0aaaam

#660000
b0 aaaaa
b11111111111111111111111111111000 aaaab
b0 aaaac
b11111111111111111111111111111000 aaaae
b11111111000111111111000001101111 aaaag
b11111 aaaah
b0 aaaaj
b11111111111111111111111111111000 aaaal
1aaaam
b11100 aaaao
b11111111111111111111111111111000 aaaap
1aaaat

#670000
0aaaam

#680000
b11111111111111000000000000000000 aaaaa
b10000000000000000000000000000000 aaaab
b111 aaaac
b10000000000000000000000000000000 aaaae
b10100100111001100110011 aaaag
b100 aaaah
b101 aaaai
b11111111111111000000000000000000 aaaaj
b10000000000000000000000000000000 aaaak
1aaaam
b1100 aaaao
b10000000000000000000000000000000 aaaap
0aaaat

#690000
0aaaam

#700000
b10000000000000000000000000000000 aaaaa
b0 aaaab
b1000 aaaac
b110000100001100011 aaaag
b110 aaaah
b0 aaaai
b10000000000000000000000000000000 aaaaj
b0 aaaak
b1000 aaaal
1aaaam
b10000 aaaao
1aaaaq

#710000
0aaaam

#720000
b110 aaaaa
b1 aaaab
b0 aaaac
b111 aaaae
b100010000000100010011 aaaag
b10 aaaah
b110 aaaaj
b1 aaaal
1aaaam
b10100 aaaao
b111 aaaap
0aaaaq
1aaaat

#730000
0aaaam

#740000
b11111111111111000000000000000000 aaaaa
b1 aaaac
b11111111111110000000000000000000 aaaae
b100100001001000110011 aaaag
b100 aaaah
b1 aaaai
b11111111111111000000000000000000 aaaaj
b1 aaaak
1aaaam
b11000 aaaao
b11111111111110000000000000000000 aaaap
0aaaat

#750000
0aaaam

#760000
b0 aaaaa
b11111111111111111111111111111000 aaaab
b0 aaaac
b11111111111111111111111111111000 aaaae
b11111111000111111111000001101111 aaaag
b11111 aaaah
b0 aaaaj
b11111111111111111111111111111000 aaaal
1aaaam
b11100 aaaao
b11111111111111111111111111111000 aaaap
1aaaat

#770000
0aaaam

#780000
b11111111111110000000000000000000 aaaaa
b10000000000000000000000000000000 aaaab
b111 aaaac
b10000000000000000000000000000000 aaaae
b10100100111001100110011 aaaag
b100 aaaah
b101 aaaai
b11111111111110000000000000000000 aaaaj
b10000000000000000000000000000000 aaaak
1aaaam
b1100 aaaao
b10000000000000000000000000000000 aaaap
0aaaat

#790000
0aaaam

#800000
b10000000000000000000000000000000 aaaaa
b0 aaaab
b1000 aaaac
b110000100001100011 aaaag
b110 aaaah
b0 aaaai
b10000000000000000000000000000000 aaaaj
b0 aaaak
b1000 aaaal
1aaaam
b10000 aaaao
1aaaaq

#810000
0aaaam

#820000
b111 aaaaa
b1 aaaab
b0 aaaac
b1000 aaaae
b100010000000100010011 aaaag
b10 aaaah
b111 aaaaj
b1 aaaal
1aaaam
b10100 aaaao
b1000 aaaap
0aaaaq
1aaaat

#830000
0aaaam

#840000
b11111111111110000000000000000000 aaaaa
b1 aaaac
b11111111111100000000000000000000 aaaae
b100100001001000110011 aaaag
b100 aaaah
b1 aaaai
b11111111111110000000000000000000 aaaaj
b1 aaaak
1aaaam
b11000 aaaao
b11111111111100000000000000000000 aaaap
0aaaat

#850000
0aaaam

#860000
b0 aaaaa
b11111111111111111111111111111000 aaaab
b0 aaaac
b11111111111111111111111111111000 aaaae
b11111111000111111111000001101111 aaaag
b11111 aaaah
b0 aaaaj
b11111111111111111111111111111000 aaaal
1aaaam
b11100 aaaao
b11111111111111111111111111111000 aaaap
1aaaat

#870000
0aaaam

#880000
b11111111111100000000000000000000 aaaaa
b10000000000000000000000000000000 aaaab
b111 aaaac
b10000000000000000000000000000000 aaaae
b10100100111001100110011 aaaag
b100 aaaah
b101 aaaai
b11111111111100000000000000000000 aaaaj
b10000000000000000000000000000000 aaaak
1aaaam
b1100 aaaao
b10000000000000000000000000000000 aaaap
0aaaat

#890000
0aaaam

#900000
b10000000000000000000000000000000 aaaaa
b0 aaaab
b1000 aaaac
b110000100001100011 aaaag
b110 aaaah
b0 aaaai
b10000000000000000000000000000000 aaaaj
b0 aaaak
b1000 aaaal
1aaaam
b10000 aaaao
1aaaaq

#910000
0aaaam

#920000
b1000 aaaaa
b1 aaaab
b0 aaaac
b1001 aaaae
b100010000000100010011 aaaag
b10 aaaah
b1000 aaaaj
b1 aaaal
1aaaam
b10100 aaaao
b1001 aaaap
0aaaaq
1aaaat

#930000
0aaaam

#940000
b11111111111100000000000000000000 aaaaa
b1 aaaac
b11111111111000000000000000000000 aaaae
b100100001001000110011 aaaag
b100 aaaah
b1 aaaai
b11111111111100000000000000000000 aaaaj
b1 aaaak
1aaaam
b11000 aaaao
b11111111111000000000000000000000 aaaap
0aaaat

#950000
0aaaam

#960000
b0 aaaaa
b11111111111111111111111111111000 aaaab
b0 aaaac
b11111111111111111111111111111000 aaaae
b11111111000111111111000001101111 aaaag
b11111 aaaah
b0 aaaaj
b11111111111111111111111111111000 aaaal
1aaaam
b11100 aaaao
b11111111111111111111111111111000 aaaap
1aaaat

#970000
0aaaam

#980000
b11111111111000000000000000000000 aaaaa
b10000000000000000000000000000000 aaaab
b111 aaaac
b10000000000000000000000000000000 aaaae
b10100100111001100110011 aaaag
b100 aaaah
b101 aaaai
b11111111111000000000000000000000 aaaaj
b10000000000000000000000000000000 aaaak
1aaaam
b1100 aaaao
b10000000000000000000000000000000 aaaap
0aaaat

#990000
0aaaam

#1000000
b10000000000000000000000000000000 aaaaa
b0 aaaab
b1000 aaaac
b110000100001100011 aaaag
b110 aaaah
b0 aaaai
b10000000000000000000000000000000 aaaaj
b0 aaaak
b1000 aaaal
1aaaam
b10000 aaaao
1aaaaq

#1010000
0aaaam

#1020000
b1001 aaaaa
b1 aaaab
b0 aaaac
b1010 aaaae
b100010000000100010011 aaaag
b10 aaaah
b1001 aaaaj
b1 aaaal
1aaaam
b10100 aaaao
b1010 aaaap
0aaaaq
1aaaat

#1030000
0aaaam

#1040000
b11111111111000000000000000000000 aaaaa
b1 aaaac
b11111111110000000000000000000000 aaaae
b100100001001000110011 aaaag
b100 aaaah
b1 aaaai
b11111111111000000000000000000000 aaaaj
b1 aaaak
1aaaam
b11000 aaaao
b11111111110000000000000000000000 aaaap
0aaaat

#1050000
0aaaam

#1060000
b0 aaaaa
b11111111111111111111111111111000 aaaab
b0 aaaac
b11111111111111111111111111111000 aaaae
b11111111000111111111000001101111 aaaag
b11111 aaaah
b0 aaaaj
b11111111111111111111111111111000 aaaal
1aaaam
b11100 aaaao
b11111111111111111111111111111000 aaaap
1aaaat

#1070000
0aaaam

#1080000
b11111111110000000000000000000000 aaaaa
b10000000000000000000000000000000 aaaab
b111 aaaac
b10000000000000000000000000000000 aaaae
b10100100111001100110011 aaaag
b100 aaaah
b101 aaaai
b11111111110000000000000000000000 aaaaj
b10000000000000000000000000000000 aaaak
1aaaam
b1100 aaaao
b10000000000000000000000000000000 aaaap
0aaaat

#1090000
0aaaam

#1100000
b10000000000000000000000000000000 aaaaa
b0 aaaab
b1000 aaaac
b110000100001100011 aaaag
b110 aaaah
b0 aaaai
b10000000000000000000000000000000 aaaaj
b0 aaaak
b1000 aaaal
1aaaam
b10000 aaaao
1aaaaq

#1110000
0aaaam

#1120000
b1010 aaaaa
b1 aaaab
b0 aaaac
b1011 aaaae
b100010000000100010011 aaaag
b10 aaaah
b1010 aaaaj
b1 aaaal
1aaaam
b10100 aaaao
b1011 aaaap
0aaaaq
1aaaat

#1130000
0aaaam

#1140000
b11111111110000000000000000000000 aaaaa
b1 aaaac
b11111111100000000000000000000000 aaaae
b100100001001000110011 aaaag
b100 aaaah
b1 aaaai
b11111111110000000000000000000000 aaaaj
b1 aaaak
1aaaam
b11000 aaaao
b11111111100000000000000000000000 aaaap
0aaaat

#1150000
0aaaam

#1160000
b0 aaaaa
b11111111111111111111111111111000 aaaab
b0 aaaac
b11111111111111111111111111111000 aaaae
b11111111000111111111000001101111 aaaag
b11111 aaaah
b0 aaaaj
b11111111111111111111111111111000 aaaal
1aaaam
b11100 aaaao
b11111111111111111111111111111000 aaaap
1aaaat

#1170000
0aaaam

#1180000
b11111111100000000000000000000000 aaaaa
b10000000000000000000000000000000 aaaab
b111 aaaac
b10000000000000000000000000000000 aaaae
b10100100111001100110011 aaaag
b100 aaaah
b101 aaaai
b11111111100000000000000000000000 aaaaj
b10000000000000000000000000000000 aaaak
1aaaam
b1100 aaaao
b10000000000000000000000000000000 aaaap
0aaaat

#1190000
0aaaam

#1200000
b10000000000000000000000000000000 aaaaa
b0 aaaab
b1000 aaaac
b110000100001100011 aaaag
b110 aaaah
b0 aaaai
b10000000000000000000000000000000 aaaaj
b0 aaaak
b1000 aaaal
1aaaam
b10000 aaaao
1aaaaq

#1210000
0aaaam

#1220000
b1011 aaaaa
b1 aaaab
b0 aaaac
b1100 aaaae
b100010000000100010011 aaaag
b10 aaaah
b1011 aaaaj
b1 aaaal
1aaaam
b10100 aaaao
b1100 aaaap
0aaaaq
1aaaat

#1230000
0aaaam

#1240000
b11111111100000000000000000000000 aaaaa
b1 aaaac
b11111111000000000000000000000000 aaaae
b100100001001000110011 aaaag
b100 aaaah
b1 aaaai
b11111111100000000000000000000000 aaaaj
b1 aaaak
1aaaam
b11000 aaaao
b11111111000000000000000000000000 aaaap
0aaaat

#1250000
0aaaam

#1260000
b0 aaaaa
b11111111111111111111111111111000 aaaab
b0 aaaac
b11111111111111111111111111111000 aaaae
b11111111000111111111000001101111 aaaag
b11111 aaaah
b0 aaaaj
b11111111111111111111111111111000 aaaal
1aaaam
b11100 aaaao
b11111111111111111111111111111000 aaaap
1aaaat

#1270000
0aaaam

#1280000
b11111111000000000000000000000000 aaaaa
b10000000000000000000000000000000 aaaab
b111 aaaac
b10000000000000000000000000000000 aaaae
b10100100111001100110011 aaaag
b100 aaaah
b101 aaaai
b11111111000000000000000000000000 aaaaj
b10000000000000000000000000000000 aaaak
1aaaam
b1100 aaaao
b10000000000000000000000000000000 aaaap
0aaaat

#1290000
0aaaam

#1300000
b10000000000000000000000000000000 aaaaa
b0 aaaab
b1000 aaaac
b110000100001100011 aaaag
b110 aaaah
b0 aaaai
b10000000000000000000000000000000 aaaaj
b0 aaaak
b1000 aaaal
1aaaam
b10000 aaaao
1aaaaq

#1310000
0aaaam

#1320000
b1100 aaaaa
b1 aaaab
b0 aaaac
b1101 aaaae
b100010000000100010011 aaaag
b10 aaaah
b1100 aaaaj
b1 aaaal
1aaaam
b10100 aaaao
b1101 aaaap
0aaaaq
1aaaat

#1330000
0aaaam

#1340000
b11111111000000000000000000000000 aaaaa
b1 aaaac
b11111110000000000000000000000000 aaaae
b100100001001000110011 aaaag
b100 aaaah
b1 aaaai
b11111111000000000000000000000000 aaaaj
b1 aaaak
1aaaam
b11000 aaaao
b11111110000000000000000000000000 aaaap
0aaaat

#1350000
0aaaam

#1360000
b0 aaaaa
b11111111111111111111111111111000 aaaab
b0 aaaac
b11111111111111111111111111111000 aaaae
b11111111000111111111000001101111 aaaag
b11111 aaaah
b0 aaaaj
b11111111111111111111111111111000 aaaal
1aaaam
b11100 aaaao
b11111111111111111111111111111000 aaaap
1aaaat

#1370000
0aaaam

#1380000
b11111110000000000000000000000000 aaaaa
b10000000000000000000000000000000 aaaab
b111 aaaac
b10000000000000000000000000000000 aaaae
b10100100111001100110011 aaaag
b100 aaaah
b101 aaaai
b11111110000000000000000000000000 aaaaj
b10000000000000000000000000000000 aaaak
1aaaam
b1100 aaaao
b10000000000000000000000000000000 aaaap
0aaaat

#1390000
0aaaam

#1400000
b10000000000000000000000000000000 aaaaa
b0 aaaab
b1000 aaaac
b110000100001100011 aaaag
b110 aaaah
b0 aaaai
b10000000000000000000000000000000 aaaaj
b0 aaaak
b1000 aaaal
1aaaam
b10000 aaaao
1aaaaq

#1410000
0aaaam

#1420000
b1101 aaaaa
b1 aaaab
b0 aaaac
b1110 aaaae
b100010000000100010011 aaaag
b10 aaaah
b1101 aaaaj
b1 aaaal
1aaaam
b10100 aaaao
b1110 aaaap
0aaaaq
1aaaat

#1430000
0aaaam

#1440000
b11111110000000000000000000000000 aaaaa
b1 aaaac
b11111100000000000000000000000000 aaaae
b100100001001000110011 aaaag
b100 aaaah
b1 aaaai
b11111110000000000000000000000000 aaaaj
b1 aaaak
1aaaam
b11000 aaaao
b11111100000000000000000000000000 aaaap
0aaaat

#1450000
0aaaam

#1460000
b0 aaaaa
b11111111111111111111111111111000 aaaab
b0 aaaac
b11111111111111111111111111111000 aaaae
b11111111000111111111000001101111 aaaag
b11111 aaaah
b0 aaaaj
b11111111111111111111111111111000 aaaal
1aaaam
b11100 aaaao
b11111111111111111111111111111000 aaaap
1aaaat

#1470000
0aaaam

#1480000
b11111100000000000000000000000000 aaaaa
b10000000000000000000000000000000 aaaab
b111 aaaac
b10000000000000000000000000000000 aaaae
b10100100111001100110011 aaaag
b100 aaaah
b101 aaaai
b11111100000000000000000000000000 aaaaj
b10000000000000000000000000000000 aaaak
1aaaam
b1100 aaaao
b10000000000000000000000000000000 aaaap
0aaaat

#1490000
0aaaam

#1500000
b10000000000000000000000000000000 aaaaa
b0 aaaab
b1000 aaaac
b110000100001100011 aaaag
b110 aaaah
b0 aaaai
b10000000000000000000000000000000 aaaaj
b0 aaaak
b1000 aaaal
1aaaam
b10000 aaaao
1aaaaq

#1510000
0aaaam

#1520000
b1110 aaaaa
b1 aaaab
b0 aaaac
b1111 aaaae
b100010000000100010011 aaaag
b10 aaaah
b1110 aaaaj
b1 aaaal
1aaaam
b10100 aaaao
b1111 aaaap
0aaaaq
1aaaat

#1530000
0aaaam

#1540000
b11111100000000000000000000000000 aaaaa
b1 aaaac
b11111000000000000000000000000000 aaaae
b100100001001000110011 aaaag
b100 aaaah
b1 aaaai
b11111100000000000000000000000000 aaaaj
b1 aaaak
1aaaam
b11000 aaaao
b11111000000000000000000000000000 aaaap
0aaaat

#1550000
0aaaam

#1560000
b0 aaaaa
b11111111111111111111111111111000 aaaab
b0 aaaac
b11111111111111111111111111111000 aaaae
b11111111000111111111000001101111 aaaag
b11111 aaaah
b0 aaaaj
b11111111111111111111111111111000 aaaal
1aaaam
b11100 aaaao
b11111111111111111111111111111000 aaaap
1aaaat

#1570000
0aaaam

#1580000
b11111000000000000000000000000000 aaaaa
b10000000000000000000000000000000 aaaab
b111 aaaac
b10000000000000000000000000000000 aaaae
b10100100111001100110011 aaaag
b100 aaaah
b101 aaaai
b11111000000000000000000000000000 aaaaj
b10000000000000000000000000000000 aaaak
1aaaam
b1100 aaaao
b10000000000000000000000000000000 aaaap
0aaaat

#1590000
0aaaam

#1600000
b10000000000000000000000000000000 aaaaa
b0 aaaab
b1000 aaaac
b110000100001100011 aaaag
b110 aaaah
b0 aaaai
b10000000000000000000000000000000 aaaaj
b0 aaaak
b1000 aaaal
1aaaam
b10000 aaaao
1aaaaq

#1610000
0aaaam

#1620000
b1111 aaaaa
b1 aaaab
b0 aaaac
b10000 aaaae
b100010000000100010011 aaaag
b10 aaaah
b1111 aaaaj
b1 aaaal
1aaaam
b10100 aaaao
b10000 aaaap
0aaaaq
1aaaat

#1630000
0aaaam

#1640000
b11111000000000000000000000000000 aaaaa
b1 aaaac
b11110000000000000000000000000000 aaaae
b100100001001000110011 aaaag
b100 aaaah
b1 aaaai
b11111000000000000000000000000000 aaaaj
b1 aaaak
1aaaam
b11000 aaaao
b11110000000000000000000000000000 aaaap
0aaaat

#1650000
0aaaam

#1660000
b0 aaaaa
b11111111111111111111111111111000 aaaab
b0 aaaac
b11111111111111111111111111111000 aaaae
b11111111000111111111000001101111 aaaag
b11111 aaaah
b0 aaaaj
b11111111111111111111111111111000 aaaal
1aaaam
b11100 aaaao
b11111111111111111111111111111000 aaaap
1aaaat

#1670000
0aaaam

#1680000
b11110000000000000000000000000000 aaaaa
b10000000000000000000000000000000 aaaab
b111 aaaac
b10000000000000000000000000000000 aaaae
b10100100111001100110011 aaaag
b100 aaaah
b101 aaaai
b11110000000000000000000000000000 aaaaj
b10000000000000000000000000000000 aaaak
1aaaam
b1100 aaaao
b10000000000000000000000000000000 aaaap
0aaaat

#1690000
0aaaam

#1700000
b10000000000000000000000000000000 aaaaa
b0 aaaab
b1000 aaaac
b110000100001100011 aaaag
b110 aaaah
b0 aaaai
b10000000000000000000000000000000 aaaaj
b0 aaaak
b1000 aaaal
1aaaam
b10000 aaaao
1aaaaq

#1710000
0aaaam

#1720000
b10000 aaaaa
b1 aaaab
b0 aaaac
b10001 aaaae
b100010000000100010011 aaaag
b10 aaaah
b10000 aaaaj
b1 aaaal
1aaaam
b10100 aaaao
b10001 aaaap
0aaaaq
1aaaat

#1730000
0aaaam

#1740000
b11110000000000000000000000000000 aaaaa
b1 aaaac
b11100000000000000000000000000000 aaaae
b100100001001000110011 aaaag
b100 aaaah
b1 aaaai
b11110000000000000000000000000000 aaaaj
b1 aaaak
1aaaam
b11000 aaaao
b11100000000000000000000000000000 aaaap
0aaaat

#1750000
0aaaam

#1760000
b0 aaaaa
b11111111111111111111111111111000 aaaab
b0 aaaac
b11111111111111111111111111111000 aaaae
b11111111000111111111000001101111 aaaag
b11111 aaaah
b0 aaaaj
b11111111111111111111111111111000 aaaal
1aaaam
b11100 aaaao
b11111111111111111111111111111000 aaaap
1aaaat

#1770000
0aaaam

#1780000
b11100000000000000000000000000000 aaaaa
b10000000000000000000000000000000 aaaab
b111 aaaac
b10000000000000000000000000000000 aaaae
b10100100111001100110011 aaaag
b100 aaaah
b101 aaaai
b11100000000000000000000000000000 aaaaj
b10000000000000000000000000000000 aaaak
1aaaam
b1100 aaaao
b10000000000000000000000000000000 aaaap
0aaaat

#1790000
0aaaam

#1800000
b10000000000000000000000000000000 aaaaa
b0 aaaab
b1000 aaaac
b110000100001100011 aaaag
b110 aaaah
b0 aaaai
b10000000000000000000000000000000 aaaaj
b0 aaaak
b1000 aaaal
1aaaam
b10000 aaaao
1aaaaq

#1810000
0aaaam

#1820000
b10001 aaaaa
b1 aaaab
b0 aaaac
b10010 aaaae
b100010000000100010011 aaaag
b10 aaaah
b10001 aaaaj
b1 aaaal
1aaaam
b10100 aaaao
b10010 aaaap
0aaaaq
1aaaat

#1830000
0aaaam

#1840000
b11100000000000000000000000000000 aaaaa
b1 aaaac
b11000000000000000000000000000000 aaaae
b100100001001000110011 aaaag
b100 aaaah
b1 aaaai
b11100000000000000000000000000000 aaaaj
b1 aaaak
1aaaam
b11000 aaaao
b11000000000000000000000000000000 aaaap
0aaaat

#1850000
0aaaam

#1860000
b0 aaaaa
b11111111111111111111111111111000 aaaab
b0 aaaac
b11111111111111111111111111111000 aaaae
b11111111000111111111000001101111 aaaag
b11111 aaaah
b0 aaaaj
b11111111111111111111111111111000 aaaal
1aaaam
b11100 aaaao
b11111111111111111111111111111000 aaaap
1aaaat

#1870000
0aaaam

